amqp==2.4.2
billiard==3.5.0.5
celery==4.2.1
certifi==2019.3.9
chardet==3.0.4
codecov==2.0.15
coverage==4.5.1
coveralls==1.5.0
Django==2.1.7
django-environ==0.4.5
django-filter==2.0.0
django-redis==4.10.0
djangorestframework>=3.9.1
djangorestframework-jwt==1.11.0
docopt==0.6.2
idna==2.7
kombu==4.4.0
Markdown==2.6.11
nose==1.3.7
PyJWT==1.6.4
pytz==2018.5
redis==3.2.0
requests==2.21.0
urllib3>=1.24.2
vine==1.2.0
